<?xml version="1.0" encoding="UTF-8"?>
<svg width="2000" height="2000" viewBox="0 0 2000 2000" xmlns="http://www.w3.org/2000/svg" xmlns:xlink="http://www.w3.org/1999/xlink">
    <g id="Group">
        <path fill="#7f7f7f" fill-rule="evenodd" stroke="none" d="M 1338 1007 C 1338 820.327759 1186.672241 669 1000 669 C 813.327759 669 662 820.327759 662 1007 C 662 1193.672241 813.327759 1345 1000 1345 C 1186.672241 1345 1338 1193.672241 1338 1007 Z"/>
        <path fill="#7f7f7f" fill-rule="evenodd" stroke="none" d="M 825 1397 C 825 1419.091309 842.90863 1437 865 1437 L 1134 1437 C 1156.091431 1437 1174 1419.091309 1174 1397 L 1174 1294 C 1174 1271.908691 1156.091431 1254 1134 1254 L 865 1254 C 842.90863 1254 825 1271.908691 825 1294 Z"/>
        <path fill="#7f7f7f" fill-rule="evenodd" stroke="none" d="M 872 1733 C 872 1755.091431 889.90863 1773 912 1773 L 1088 1773 C 1110.091431 1773 1128 1755.091431 1128 1733 L 1128 1731 C 1128 1708.908569 1110.091431 1691 1088 1691 L 912 1691 C 889.90863 1691 872 1708.908569 872 1731 Z"/>
        <path fill="#7f7f7f" fill-rule="evenodd" stroke="none" d="M 825 1509 C 825 1531.091431 842.90863 1549 865 1549 L 1134 1549 C 1156.091431 1549 1174 1531.091431 1174 1509 L 1174 1507 C 1174 1484.908691 1156.091431 1467 1134 1467 L 865 1467 C 842.90863 1467 825 1484.908691 825 1507 Z"/>
        <path fill="#7f7f7f" fill-rule="evenodd" stroke="none" d="M 1367.963379 640.450806 C 1383.584351 656.071777 1408.911011 656.071777 1424.531982 640.450806 L 1614.743652 450.239014 C 1630.364624 434.618042 1630.364624 409.291504 1614.743652 393.670532 L 1613.329468 392.256348 C 1597.708496 376.635376 1572.381958 376.635376 1556.760986 392.256348 L 1366.549194 582.468018 C 1350.928223 598.088989 1350.928223 623.415649 1366.549194 639.036621 Z"/>
        <path fill="#7f7f7f" fill-rule="evenodd" stroke="none" d="M 385.549194 393.963379 C 369.928223 409.584351 369.928223 434.911011 385.549194 450.531982 L 575.760925 640.743652 C 591.381897 656.364624 616.708496 656.364624 632.329468 640.743652 L 633.743713 639.329468 C 649.364685 623.708496 649.364685 598.381958 633.743713 582.760986 L 443.531952 392.549194 C 427.91098 376.928223 402.584381 376.928223 386.963409 392.549194 Z"/>
        <path fill="#7f7f7f" fill-rule="evenodd" stroke="none" d="M 1107.954224 565.061646 C 1128.364014 573.515625 1151.762817 563.823486 1160.216797 543.413818 L 1263.158691 294.890137 C 1271.612671 274.480347 1261.920532 251.081665 1241.510742 242.627686 L 1239.663086 241.862305 C 1219.253296 233.408325 1195.854492 243.100342 1187.400513 263.510132 L 1084.458618 512.033691 C 1076.004639 532.443481 1085.696777 555.842285 1106.106567 564.296265 Z"/>
        <path fill="#7f7f7f" fill-rule="evenodd" stroke="none" d="M 757.106506 242.703735 C 736.696716 251.157715 727.004639 274.556519 735.458679 294.966309 L 838.400513 543.489868 C 846.854553 563.899658 870.253235 573.591675 890.663025 565.137695 L 892.510803 564.372314 C 912.920593 555.918335 922.612671 532.519653 914.15863 512.109863 L 811.216797 263.586182 C 802.762817 243.176514 779.364075 233.484375 758.954285 241.938354 Z"/>
        <path fill="#7f7f7f" fill-rule="evenodd" stroke="none" d="M 825 1621 C 825 1643.091431 842.90863 1661 865 1661 L 1134 1661 C 1156.091431 1661 1174 1643.091431 1174 1621 L 1174 1619 C 1174 1596.908569 1156.091431 1579 1134 1579 L 865 1579 C 842.90863 1579 825 1596.908569 825 1619 Z"/>
    </g>
</svg>
