<?xml version="1.0" encoding="UTF-8"?>
<svg width="2000" height="2000" viewBox="0 0 2000 2000" xmlns="http://www.w3.org/2000/svg" xmlns:xlink="http://www.w3.org/1999/xlink">
    <path id="Ellipse" fill="none" stroke="#7f7f7f" stroke-width="150" stroke-linecap="round" d="M 1021.046875 75.21875 L 1044.890625 76.0625 L 1068.359375 77.484375 L 1091.453125 79.453125 L 1115.25 82.09375 L 1137.9375 85.203125 L 1160.859375 88.921875 L 1183.78125 93.234375 L 1206.0625 98.015625 L 1228.3125 103.375 L 1250.65625 109.34375 L 1272.140625 115.671875 L 1294.078125 122.703125 L 1315.640625 130.234375 L 1336.28125 138 L 1354.8125 145.46875 L 1375.65625 154.453125 L 1395.796875 163.6875 L 1416.078125 173.625 L 1435.84375 183.890625 L 1455.765625 194.875 L 1474.671875 205.890625 L 1493.90625 217.75 L 1512.484375 229.8125 L 1530.75 242.3125 L 1549.078125 255.515625 L 1566.828125 268.953125 L 1583.84375 282.484375 L 1600.984375 296.796875 L 1617.6875 311.453125 L 1634.046875 326.5 L 1650.46875 342.359375 L 1665.515625 357.578125 L 1688.53125 382.3125 L 1703.1875 399 L 1717.5 416.140625 L 1731.03125 433.15625 L 1744.46875 450.90625 L 1757.671875 469.234375 L 1770.171875 487.5 L 1782.234375 506.078125 L 1794.09375 525.3125 L 1805.109375 544.21875 L 1816.09375 564.140625 L 1826.359375 583.90625 L 1836.296875 604.1875 L 1845.53125 624.328125 L 1854.515625 645.171875 L 1861.984375 663.703125 L 1869.75 684.34375 L 1877.28125 705.90625 L 1884.3125 727.84375 L 1890.640625 749.328125 L 1896.609375 771.671875 L 1901.96875 793.921875 L 1906.75 816.203125 L 1911.0625 839.125 L 1914.796875 862.125 L 1917.875 884.609375 L 1920.53125 908.609375 L 1922.5 931.625 L 1923.921875 955.09375 L 1924.75 978.9375 L 1924.984375 1000 L 1924.765625 1021.046875 L 1923.921875 1044.890625 L 1922.5 1068.359375 L 1920.53125 1091.453125 L 1917.890625 1115.25 L 1914.78125 1137.9375 L 1911.0625 1160.859375 L 1906.75 1183.78125 L 1901.96875 1206.0625 L 1896.609375 1228.3125 L 1890.640625 1250.65625 L 1884.3125 1272.140625 L 1877.28125 1294.078125 L 1869.75 1315.640625 L 1861.984375 1336.28125 L 1854.515625 1354.8125 L 1845.53125 1375.65625 L 1836.296875 1395.796875 L 1826.359375 1416.078125 L 1816.09375 1435.84375 L 1805.109375 1455.765625 L 1794.09375 1474.671875 L 1782.234375 1493.90625 L 1770.171875 1512.484375 L 1757.671875 1530.75 L 1744.46875 1549.078125 L 1731.03125 1566.828125 L 1717.5 1583.84375 L 1703.1875 1600.984375 L 1688.53125 1617.6875 L 1673.46875 1634.0625 L 1650.109375 1657.96875 L 1634.046875 1673.484375 L 1617.6875 1688.53125 L 1600.984375 1703.1875 L 1583.84375 1717.5 L 1566.828125 1731.03125 L 1549.078125 1744.46875 L 1530.75 1757.671875 L 1512.484375 1770.171875 L 1493.90625 1782.234375 L 1474.671875 1794.09375 L 1455.765625 1805.109375 L 1435.84375 1816.09375 L 1416.078125 1826.359375 L 1395.796875 1836.296875 L 1375.65625 1845.53125 L 1354.8125 1854.515625 L 1336.28125 1861.984375 L 1315.640625 1869.75 L 1294.078125 1877.28125 L 1272.140625 1884.3125 L 1250.65625 1890.640625 L 1228.3125 1896.609375 L 1206.0625 1901.96875 L 1183.78125 1906.75 L 1160.859375 1911.0625 L 1137.9375 1914.78125 L 1115.25 1917.890625 L 1091.453125 1920.53125 L 1068.359375 1922.5 L 1044.890625 1923.921875 L 1021.046875 1924.765625 L 1000 1924.984375 L 978.9375 1924.75 L 955.09375 1923.921875 L 931.625 1922.5 L 908.609375 1920.53125 L 884.609375 1917.875 L 862.125 1914.796875 L 839.125 1911.0625 L 816.203125 1906.75 L 793.921875 1901.96875 L 771.671875 1896.609375 L 749.328125 1890.640625 L 727.84375 1884.3125 L 705.90625 1877.28125 L 684.34375 1869.75 L 663.703125 1861.984375 L 645.171875 1854.515625 L 624.328125 1845.53125 L 604.1875 1836.296875 L 583.90625 1826.359375 L 564.140625 1816.09375 L 544.21875 1805.109375 L 525.3125 1794.09375 L 506.078125 1782.234375 L 487.5 1770.171875 L 469.234375 1757.671875 L 450.90625 1744.46875 L 433.15625 1731.03125 L 416.140625 1717.5 L 399 1703.1875 L 382.296875 1688.53125 L 365.921875 1673.46875 L 342.015625 1650.109375 L 326.5 1634.046875 L 311.453125 1617.6875 L 296.796875 1600.984375 L 282.484375 1583.84375 L 268.953125 1566.828125 L 255.515625 1549.078125 L 242.3125 1530.75 L 229.8125 1512.484375 L 217.75 1493.90625 L 205.890625 1474.671875 L 194.875 1455.765625 L 183.890625 1435.84375 L 173.625 1416.078125 L 163.6875 1395.796875 L 154.453125 1375.65625 L 145.46875 1354.8125 L 138 1336.28125 L 130.234375 1315.640625 L 122.703125 1294.078125 L 115.671875 1272.140625 L 109.34375 1250.65625 L 103.375 1228.3125 L 98.015625 1206.0625 L 93.234375 1183.78125 L 88.921875 1160.859375 L 85.203125 1137.9375 L 82.09375 1115.25 L 79.453125 1091.453125 L 77.484375 1068.359375 L 76.0625 1044.890625 L 75.21875 1021.046875 L 75.015625 1000 L 75.234375 978.9375 L 76.0625 955.09375 L 77.484375 931.625 L 79.453125 908.609375 L 82.109375 884.609375 L 85.1875 862.125 L 88.921875 839.125 L 93.234375 816.203125 L 98.015625 793.921875 L 103.375 771.671875 L 109.34375 749.328125 L 115.671875 727.84375 L 122.703125 705.90625 L 130.234375 684.34375 L 138 663.703125 L 145.46875 645.171875 L 154.453125 624.328125 L 163.6875 604.1875 L 173.625 583.90625 L 183.890625 564.140625 L 194.875 544.21875 L 205.890625 525.3125 L 217.75 506.078125 L 229.8125 487.5 L 242.3125 469.234375 L 255.515625 450.90625 L 268.953125 433.15625 L 282.484375 416.140625 L 296.796875 399 L 311.453125 382.296875 L 326.5 365.9375 L 342.015625 349.875 L 365.921875 326.515625 L 382.296875 311.453125 L 399 296.796875 L 416.140625 282.484375 L 433.15625 268.953125 L 450.90625 255.515625 L 469.234375 242.3125 L 487.5 229.8125 L 506.078125 217.75 L 525.3125 205.890625 L 544.21875 194.875 L 564.140625 183.890625 L 583.90625 173.625 L 604.1875 163.6875 L 624.328125 154.453125 L 645.171875 145.46875 L 663.703125 138 L 684.34375 130.234375 L 705.90625 122.703125 L 727.84375 115.671875 L 749.328125 109.34375 L 771.671875 103.375 L 793.921875 98.015625 L 816.203125 93.234375 L 839.125 88.921875 L 862.125 85.1875 L 884.609375 82.109375 L 908.609375 79.453125 L 931.625 77.484375 L 955.09375 76.0625 L 978.9375 75.234375 L 1000 75.015625 Z"/>
    <path id="path1" fill="#7f7f7f" fill-rule="evenodd" stroke="none" d="M 1100 573 C 1100 517.771484 1055.228516 473 1000 473 C 944.771545 473 900 517.771484 900 573 C 900 628.228516 944.771545 673 1000 673 C 1055.228516 673 1100 628.228516 1100 573 Z"/>
    <path id="Line" fill="none" stroke="#7f7f7f" stroke-width="200" stroke-linecap="round" stroke-linejoin="round" d="M 1000 912 L 1000 1493"/>
</svg>
